%YAML 1.1
%TAG !u! tag:unity3d.com,2011:
--- !u!74 &7400000
AnimationClip:
  m_ObjectHideFlags: 0
  m_CorrespondingSourceObject: {fileID: 0}
  m_PrefabInstance: {fileID: 0}
  m_PrefabAsset: {fileID: 0}
  m_Name: Lanzar
  serializedVersion: 6
  m_Legacy: 0
  m_Compressed: 0
  m_UseHighQualityCurve: 1
  m_RotationCurves: []
  m_CompressedRotationCurves: []
  m_EulerCurves: []
  m_PositionCurves: []
  m_ScaleCurves: []
  m_FloatCurves: []
  m_PPtrCurves:
  - curve:
    - time: 0
      value: {fileID: 21300000, guid: 6d9db3990a99e492c834f211590bd260, type: 3}
    - time: 0.05
      value: {fileID: 21300000, guid: f7847df433d294004a150d51dee0a0cf, type: 3}
    - time: 0.11666667
      value: {fileID: 21300000, guid: 0c3709de814134f38aea2866db89e0da, type: 3}
    - time: 0.16666667
      value: {fileID: 21300000, guid: 4ee012594463e4666bea24ebc14fa2f5, type: 3}
    - time: 0.21666667
      value: {fileID: 21300000, guid: a8f94d08ab7f044959a2b653ef14c8ce, type: 3}
    - time: 0.28333333
      value: {fileID: 21300000, guid: d50fa01f614a84cdea6418a671f9ed9f, type: 3}
    - time: 0.33333334
      value: {fileID: 21300000, guid: 6faa21a4aa7834b378d9b965b0baf018, type: 3}
    - time: 0.38333333
      value: {fileID: 21300000, guid: 883107e11c8604c37bb81626dc984bf9, type: 3}
    - time: 0.45
      value: {fileID: 21300000, guid: 55013afe4c00d43d3876a04093d7c33c, type: 3}
    - time: 0.5
      value: {fileID: 21300000, guid: 1c0167bf0cb1f462d8cb07de4a926038, type: 3}
    attribute: m_Sprite
    path: 
    classID: 212
    script: {fileID: 0}
  m_SampleRate: 60
  m_WrapMode: 0
  m_Bounds:
    m_Center: {x: 0, y: 0, z: 0}
    m_Extent: {x: 0, y: 0, z: 0}
  m_ClipBindingConstant:
    genericBindings:
    - serializedVersion: 2
      path: 0
      attribute: 0
      script: {fileID: 0}
      typeID: 212
      customType: 23
      isPPtrCurve: 1
    pptrCurveMapping:
    - {fileID: 21300000, guid: 6d9db3990a99e492c834f211590bd260, type: 3}
    - {fileID: 21300000, guid: f7847df433d294004a150d51dee0a0cf, type: 3}
    - {fileID: 21300000, guid: 0c3709de814134f38aea2866db89e0da, type: 3}
    - {fileID: 21300000, guid: 4ee012594463e4666bea24ebc14fa2f5, type: 3}
    - {fileID: 21300000, guid: a8f94d08ab7f044959a2b653ef14c8ce, type: 3}
    - {fileID: 21300000, guid: d50fa01f614a84cdea6418a671f9ed9f, type: 3}
    - {fileID: 21300000, guid: 6faa21a4aa7834b378d9b965b0baf018, type: 3}
    - {fileID: 21300000, guid: 883107e11c8604c37bb81626dc984bf9, type: 3}
    - {fileID: 21300000, guid: 55013afe4c00d43d3876a04093d7c33c, type: 3}
    - {fileID: 21300000, guid: 1c0167bf0cb1f462d8cb07de4a926038, type: 3}
  m_AnimationClipSettings:
    serializedVersion: 2
    m_AdditiveReferencePoseClip: {fileID: 0}
    m_AdditiveReferencePoseTime: 0
    m_StartTime: 0
    m_StopTime: 0.51666665
    m_OrientationOffsetY: 0
    m_Level: 0
    m_CycleOffset: 0
    m_HasAdditiveReferencePose: 0
    m_LoopTime: 1
    m_LoopBlend: 0
    m_LoopBlendOrientation: 0
    m_LoopBlendPositionY: 0
    m_LoopBlendPositionXZ: 0
    m_KeepOriginalOrientation: 0
    m_KeepOriginalPositionY: 1
    m_KeepOriginalPositionXZ: 0
    m_HeightFromFeet: 0
    m_Mirror: 0
  m_EditorCurves: []
  m_EulerEditorCurves: []
  m_HasGenericRootTransform: 0
  m_HasMotionFloatCurves: 0
  m_Events: []
