%YAML 1.1
%TAG !u! tag:unity3d.com,2011:
--- !u!74 &7400000
AnimationClip:
  m_ObjectHideFlags: 0
  m_CorrespondingSourceObject: {fileID: 0}
  m_PrefabInstance: {fileID: 0}
  m_PrefabAsset: {fileID: 0}
  m_Name: Quieto
  serializedVersion: 6
  m_Legacy: 0
  m_Compressed: 0
  m_UseHighQualityCurve: 1
  m_RotationCurves: []
  m_CompressedRotationCurves: []
  m_EulerCurves: []
  m_PositionCurves: []
  m_ScaleCurves: []
  m_FloatCurves: []
  m_PPtrCurves:
  - curve:
    - time: 0
      value: {fileID: 21300000, guid: b59e74d11e76d44d38668f8ba5fe3a29, type: 3}
    - time: 0.11666667
      value: {fileID: 21300000, guid: b4ff25f62815a457e98b8364c5e9943a, type: 3}
    - time: 0.23333333
      value: {fileID: 21300000, guid: 2e9f152a559ad4af2a7045e3c19a45b4, type: 3}
    - time: 0.35
      value: {fileID: 21300000, guid: 33403811fce7d474aa0eafe489d5e7ac, type: 3}
    - time: 0.45
      value: {fileID: 21300000, guid: edc23c7be7f594cc09dd9ed12ee23e3a, type: 3}
    - time: 0.56666666
      value: {fileID: 21300000, guid: 0193a8f90c79a4858a758aea75562102, type: 3}
    - time: 0.68333334
      value: {fileID: 21300000, guid: 2129b5142e7d44fbd8e97d1bac2a9d3c, type: 3}
    - time: 0.78333336
      value: {fileID: 21300000, guid: 3f294bcb1a4ea424b8112bdb342f14ca, type: 3}
    - time: 0.9
      value: {fileID: 21300000, guid: 34113f1183b8049509bb5e12db8fd3a4, type: 3}
    - time: 1
      value: {fileID: 21300000, guid: abdcf358a969c482d9b008b1ce86fcf1, type: 3}
    attribute: m_Sprite
    path: 
    classID: 212
    script: {fileID: 0}
  m_SampleRate: 60
  m_WrapMode: 0
  m_Bounds:
    m_Center: {x: 0, y: 0, z: 0}
    m_Extent: {x: 0, y: 0, z: 0}
  m_ClipBindingConstant:
    genericBindings:
    - serializedVersion: 2
      path: 0
      attribute: 0
      script: {fileID: 0}
      typeID: 212
      customType: 23
      isPPtrCurve: 1
    pptrCurveMapping:
    - {fileID: 21300000, guid: b59e74d11e76d44d38668f8ba5fe3a29, type: 3}
    - {fileID: 21300000, guid: b4ff25f62815a457e98b8364c5e9943a, type: 3}
    - {fileID: 21300000, guid: 2e9f152a559ad4af2a7045e3c19a45b4, type: 3}
    - {fileID: 21300000, guid: 33403811fce7d474aa0eafe489d5e7ac, type: 3}
    - {fileID: 21300000, guid: edc23c7be7f594cc09dd9ed12ee23e3a, type: 3}
    - {fileID: 21300000, guid: 0193a8f90c79a4858a758aea75562102, type: 3}
    - {fileID: 21300000, guid: 2129b5142e7d44fbd8e97d1bac2a9d3c, type: 3}
    - {fileID: 21300000, guid: 3f294bcb1a4ea424b8112bdb342f14ca, type: 3}
    - {fileID: 21300000, guid: 34113f1183b8049509bb5e12db8fd3a4, type: 3}
    - {fileID: 21300000, guid: abdcf358a969c482d9b008b1ce86fcf1, type: 3}
  m_AnimationClipSettings:
    serializedVersion: 2
    m_AdditiveReferencePoseClip: {fileID: 0}
    m_AdditiveReferencePoseTime: 0
    m_StartTime: 0
    m_StopTime: 1.0166667
    m_OrientationOffsetY: 0
    m_Level: 0
    m_CycleOffset: 0
    m_HasAdditiveReferencePose: 0
    m_LoopTime: 1
    m_LoopBlend: 0
    m_LoopBlendOrientation: 0
    m_LoopBlendPositionY: 0
    m_LoopBlendPositionXZ: 0
    m_KeepOriginalOrientation: 0
    m_KeepOriginalPositionY: 1
    m_KeepOriginalPositionXZ: 0
    m_HeightFromFeet: 0
    m_Mirror: 0
  m_EditorCurves: []
  m_EulerEditorCurves: []
  m_HasGenericRootTransform: 0
  m_HasMotionFloatCurves: 0
  m_Events: []
