%YAML 1.1
%TAG !u! tag:unity3d.com,2011:
--- !u!74 &7400000
AnimationClip:
  m_ObjectHideFlags: 0
  m_CorrespondingSourceObject: {fileID: 0}
  m_PrefabInstance: {fileID: 0}
  m_PrefabAsset: {fileID: 0}
  m_Name: Salto
  serializedVersion: 6
  m_Legacy: 0
  m_Compressed: 0
  m_UseHighQualityCurve: 1
  m_RotationCurves: []
  m_CompressedRotationCurves: []
  m_EulerCurves: []
  m_PositionCurves: []
  m_ScaleCurves: []
  m_FloatCurves: []
  m_PPtrCurves:
  - curve:
    - time: 0
      value: {fileID: 21300000, guid: fe7bdc2ea3cef4511bb0ea40d8f56a0b, type: 3}
    - time: 0.016666668
      value: {fileID: 21300000, guid: 26db42683672e4d6fae933bae4461018, type: 3}
    - time: 0.05
      value: {fileID: 21300000, guid: a2655d7313bd54bb8a853640891066f5, type: 3}
    - time: 0.083333336
      value: {fileID: 21300000, guid: fb1f3ae3e10ff4b7ea27421d3a476fcd, type: 3}
    - time: 0.1
      value: {fileID: 21300000, guid: aa054e7aea3e74491b6d93b03c3908d8, type: 3}
    - time: 0.13333334
      value: {fileID: 21300000, guid: 5cbe16c5135984571b365a96c33eda6c, type: 3}
    - time: 0.16666667
      value: {fileID: 21300000, guid: e4d08c8165d664d89a269d8fd0302c73, type: 3}
    - time: 0.18333334
      value: {fileID: 21300000, guid: 939b5af905e644d28997326bc59898fd, type: 3}
    - time: 0.21666667
      value: {fileID: 21300000, guid: 13dc4484e489040cebefc9b09b68b02f, type: 3}
    - time: 0.25
      value: {fileID: 21300000, guid: 750bd6fbccf80410889fe2ed9d0d7a5d, type: 3}
    attribute: m_Sprite
    path: 
    classID: 212
    script: {fileID: 0}
  m_SampleRate: 60
  m_WrapMode: 0
  m_Bounds:
    m_Center: {x: 0, y: 0, z: 0}
    m_Extent: {x: 0, y: 0, z: 0}
  m_ClipBindingConstant:
    genericBindings:
    - serializedVersion: 2
      path: 0
      attribute: 0
      script: {fileID: 0}
      typeID: 212
      customType: 23
      isPPtrCurve: 1
    pptrCurveMapping:
    - {fileID: 21300000, guid: fe7bdc2ea3cef4511bb0ea40d8f56a0b, type: 3}
    - {fileID: 21300000, guid: 26db42683672e4d6fae933bae4461018, type: 3}
    - {fileID: 21300000, guid: a2655d7313bd54bb8a853640891066f5, type: 3}
    - {fileID: 21300000, guid: fb1f3ae3e10ff4b7ea27421d3a476fcd, type: 3}
    - {fileID: 21300000, guid: aa054e7aea3e74491b6d93b03c3908d8, type: 3}
    - {fileID: 21300000, guid: 5cbe16c5135984571b365a96c33eda6c, type: 3}
    - {fileID: 21300000, guid: e4d08c8165d664d89a269d8fd0302c73, type: 3}
    - {fileID: 21300000, guid: 939b5af905e644d28997326bc59898fd, type: 3}
    - {fileID: 21300000, guid: 13dc4484e489040cebefc9b09b68b02f, type: 3}
    - {fileID: 21300000, guid: 750bd6fbccf80410889fe2ed9d0d7a5d, type: 3}
  m_AnimationClipSettings:
    serializedVersion: 2
    m_AdditiveReferencePoseClip: {fileID: 0}
    m_AdditiveReferencePoseTime: 0
    m_StartTime: 0
    m_StopTime: 0.26666668
    m_OrientationOffsetY: 0
    m_Level: 0
    m_CycleOffset: 0
    m_HasAdditiveReferencePose: 0
    m_LoopTime: 1
    m_LoopBlend: 0
    m_LoopBlendOrientation: 0
    m_LoopBlendPositionY: 0
    m_LoopBlendPositionXZ: 0
    m_KeepOriginalOrientation: 0
    m_KeepOriginalPositionY: 1
    m_KeepOriginalPositionXZ: 0
    m_HeightFromFeet: 0
    m_Mirror: 0
  m_EditorCurves: []
  m_EulerEditorCurves: []
  m_HasGenericRootTransform: 0
  m_HasMotionFloatCurves: 0
  m_Events: []
